[gd_scene load_steps=2 format=2]

[ext_resource path="res://Game/Server/SessionServer/Cards/Properties/MyServerProperty.cs" type="Script" id=1]


[node name="MyServerProperty" type="Node"]
script = ExtResource( 1 )
