[gd_scene load_steps=5 format=2]

[ext_resource path="res://circle.png" type="Texture" id=1]
[ext_resource path="res://AlbedoShader.shader" type="Shader" id=2]
[ext_resource path="res://MyCircle.cs" type="Script" id=3]

[sub_resource type="ShaderMaterial" id=1]
shader = ExtResource( 2 )
shader_param/Albedo = Color( 0, 0, 0, 1 )

[node name="MyCircle" type="TextureRect"]
material = SubResource( 1 )
margin_right = 30.0
margin_bottom = 30.0
rect_min_size = Vector2( 30, 30 )
texture = ExtResource( 1 )
expand = true
script = ExtResource( 3 )
__meta__ = {
"_edit_use_anchors_": false
}
