[gd_scene load_steps=5 format=2]

[ext_resource path="res://Game/Server/SessionServer/Battle/MyServerPlayerBase.cs" type="Script" id=1]
[ext_resource path="res://Game/Server/SessionServer/Battle/MyServerCemetery.tscn" type="PackedScene" id=2]
[ext_resource path="res://Game/Server/SessionServer/Battle/MyServerDeck.tscn" type="PackedScene" id=3]
[ext_resource path="res://Game/Server/SessionServer/Battle/MyServerHand.tscn" type="PackedScene" id=4]


[node name="MyServerPlayerBase" type="Node"]
script = ExtResource( 1 )

[node name="Cemetery" parent="." instance=ExtResource( 2 )]

[node name="Deck" parent="." instance=ExtResource( 3 )]

[node name="Hand" parent="." instance=ExtResource( 4 )]
