keys,en,fr
MENU_NAME,Name:,Nom :
MENU_PORT,Port:,Port :
MENU_ALLOW_EXT,Allow external Connections:,Connections extérieures autorisées :
MENU_IP,IP:,IP :
MENU_CONNECT,Connect to server,Se connecter au server
MENU_EXIT,Exit,Quitter
MENU_START,Start server,Démarrer le server
MENU_PLANE,Select your plane:,Selectionner l'avion :
VOLUME_MASTER,Master:,Principal :
VOLUME_ENGINE,Engines:,Moteurs :
VOLUME_GUN,Gun shots:,Tir :
VOLUME_EXPLOSION,Explosions:,Explosions :
VOLUME_ENV,Environment:,Environnement :
VOLUME_MUSIC,Musics:,Musiques :
MENU_PARTICLE,Particles:,Particules :
MENU_STOP_PART,Stop Emitting particles upon destruction:,Arrêter d'émettre des particles après destruction :
MENU_MAXIMIZED,Maximized:,Maximiser :
MENU_FS,Fullscreen:,Plein écran :
MENU_LOCAL,Localization:,Language :
MENU_DEBUG,Show debug info:,Info de débogage :
MENU_SETTING,Settings,Paramètres
MENU_PLAY,Play,Jouer
MENU_HANG,Hangar,Hangar
MENU_VOLU,Volume,Volume
MENU_DISP,Display,Affichage
MENU_CONT,Controls,Contrôles
MENU_CRED,Credits,Credits
CREDIT_CODE,Code:,Code :
CREDIT_ENGINE,Game engine:,Moteur de jeu :
CREDIT_MAIN_DEV,Main developper:,Développeur principal :
CREDIT_TEXTURE,Textures:,Textures :
CREDIT_BOMBER,Bomber:,Bombardier :
CREDIT_OTHER_TEXTURE,Other textures:,Autres textures :
CREDIT_SOUND,Sound effects:,Effets sonores :
CREDIT_EGA,Engines & Guns & Ambiances:, Moteurs & Armes & Ambiances :
CREDIT_MUSICS,Musics:,Musiques :
CREDIT_THANKS,Thanks:,Remerciements :
CREDIT_ALL_PLAYER,To all players,A tout les joueurs
R,R,R
G,G,V
B,B,B
MENU_COLOR,Color,Couleur
ui_accept,Accept,Accepter
ui_select,Select,Séléctionner
ui_cancel,Cancel,Annuler
ui_focus_next,Navigation: Next,Navigation : Suivant
ui_focus_prev,Navigation: Previous,Navigation : Précédent
ui_left,Navigation: Left,Navigation : Gauche
ui_right,Navigation: Right,Navigation : Droite
ui_up,Navigation: Up,Navigation : Dessus
ui_down,Navigation: Down,Navigation : Dessous
ui_page_up,Navigation: Page Up,Navigation : Page précédente
ui_page_down,Navigation: Page Down,Navigation : Page suivante
ui_home,Navigation: Home,Navigation : Accueil
ui_end,Navigation: End,Navigation : Fin
plane_rotate,Turn,Tourner
plane_rotate_inv,Turn 2,Tourner 2
plane_increase_thrust,Increase thrust,Augmenter la poussé
plane_decrease_thrust,Decrease thrust,Diminuer la poussé
plane_reverse,Reverse,Retourner
plane_primary_gun,Gun 1,Arme 1
plane_secondary_gun,Gun 2,Arme 2
plane_third_gun,Gun 3,Arme 3
plane_fourth_gun,Gun 4,Arme 4
plane_zoom_in,Zoom in,Zoomer
plane_zoom_out,Zoom out,Dézoomer
LOG_TEAM,The team ,L'équipe 
LOG_WIN, has won the battle., a gagné la bataille.
LOG_SCENARIO,Current scenario: ,Scénario actuel: 
LOG_START,Starting in ,Début dans 
LOG_SECOND, seconds..., secondes...
LOG_LEAVE, leaved., est parti.
LOG_JOIN, join the team , a rejoint l'équipe 
LOG_LOS, has been defeated., a été vaincu.
LOG_NO_VIC,No one is victorious.,Aucun gagnant.
LOG_CRASHED,crashed,s'est écrasé
LOG_WING,was shot down by,a été abattu par
LOG_BURN,was burned by,a été brulé par
LOG_CRASH_BY,crashed because of,s'est écrasé a cause de
LOG_RAM,was rammed by,a été percuté par
LOG_TAIL,had his tail cut off by,a eu sa queue coupée par
LOG_KILL,was killed by,a été tué par
LOG_ENGINE,had his engine turned off by,a eu son moteur détruit par
LOG_EXPLOSION,exploded because of,a explosé a cause de
LOG_SELF_EXPLOSION,explode,a explosé
LOG_SELF_BURN,burned,a brulé
STAT_PLANE,Plane:,Avion :
STAT_SPEED,Speed:,Vitesse :
STAT_ALT,Altitude:,Altitude :
STAT_THRUST,Throttle:,Manette des gaz :
TD_TEAM,Team,Equipe
MG12,12mm Machine Gun,Mitrailleuse de 12mm
MG122,12mm Machine Gun,Mitrailleuse de 12mm
TU12,12mm Turret,Tourelle de 12mm
TU122,12mm Turret,Tourelle de 12mm
CA23,23mm Canon,Canon de 23mm
CA232,23mm Canon,Canon de 23mm
TU23,23mm Turret,Tourelle de 23mm
TU37,37mm Turret,Tourelle de 37mm
CA37,37mm Canon,Canon de 37mm
CA20,20mm Canon,Canon de 20mm
BG,250lb Bombs,Bombes de 250lb
RG,Rockets,Roquettes
MENU_BAT_PAU,Pause,Pause
MENU_BAT_SCE,Scenario,Scénario
MENU_BAT_SER,Server,Serveur
MENU_BAT_PAUSE,Pause,Pause
MENU_BAT_RESUME,Resume,Continuer
MENU_BAT_SPECTATE,Spectate,Observer
MENU_BAT_SPECTATE_OFF,Stop spectating,Arrêter d'observer
MENU_BAT_CLOSE,Close,Fermer
MENU_BAT_EXIT,Exit battle,Quitter la bataille
MENU_BAT_NEXT,Next scenario,Scénario suivant
MENU_BAT_ROT,Rotation mode:,Mode de rotation :
Forward,Forward,Avancer
Backward,Backward,Reculer
None,None,Aucun
Random,Random,Aléatoire
MENU_BAT_PLAYERS,Players:,Joueurs :
MENU_BAT_IA_COUNT,AI Count per team:,Nombre d'IA par équipe :
ERR_CON_FAILED,Connection failed.,Echec de la connection.
ERR_SERV_START,Error while loading server.,Erreur lors de la création du server.
ERR_CLI_START,Error while loading client.,Erreur lors du chargement du client.
ERR_DISCONNECTED,Disconnected.,Déconnecté.
BATTLE_LEAVED,Battle leaved.,Bataille quittée.
MSG_START,Welcome.,Bienvenu.
LOAD_LOADING,Loading...,Chargement...
LOAD_END,Loaded.,Chargement terminé.
LOAD_CREATE_SERVER,Creating server...,Création du serveur...
LOAD_SETUP,Setting up battle...,Mise en place de la bataille...
LOAD_CREATE_CLIENT,Creating client...,Création du client...
LOAD_CONNECTING,Connecting...,Connection...
LOAD_REFRESH,Refreshing battle datas...,Rechargement des données de bataille...