[gd_scene load_steps=4 format=2]

[ext_resource path="res://Content/Models/World/SpaceBodyTriangle.obj" type="ArrayMesh" id=1]
[ext_resource path="res://Game/World/MySpaceBodyDisplay.cs" type="Script" id=2]


[sub_resource type="ConvexPolygonShape" id=1]
points = PoolVector3Array( -0.5, 1.207, -0.5, 0.5, 1.207, 0.5, -0.5, 1.207, 0.5, 0.5, 1.207, -0.5, 1.207, 0.5, 0.5, 1.207, 0.5, -0.5, 1.207, -0.5, 0.5, 1.207, -0.5, -0.5, -0.5, -0.5, 1.207, -0.5, 0.5, 1.207, 0.5, -0.5, 1.207, 0.5, 0.5, 1.207, -0.5, -1.207, -0.5, 0.5, -1.207, -0.5, -0.5, -1.207, 0.5, 0.5, -1.207, 0.5, -1.207, -0.5, -0.5, -1.207, -0.5, 0.5, -1.207, 0.5, -0.5, -1.207, 0.5, 0.5, -0.5, -0.5, -1.207, 0.5, -0.5, -1.207, -0.5, 0.5, -1.207, 0.5, 0.5, -1.207 )

[node name="MySpaceBodyDisplay" type="StaticBody"]
script = ExtResource( 2 )

[node name="Hitbox" type="CollisionShape" parent="."]
shape = SubResource( 1 )

[node name="VisualMesh" type="MeshInstance" parent="."]
mesh = ExtResource( 1 )
material/0 = null
