[gd_scene load_steps=5 format=2]

[ext_resource path="res://Content/Shaders/AlbedoShader.shader" type="Shader" id=1]
[ext_resource path="res://Game/Common/Projectiles/Bullets/MyExplosiveBulletProjectile.tscn" type="PackedScene" id=2]
[ext_resource path="res://Content/Textures/Bullet_Flare.png" type="Texture" id=3]

[sub_resource type="ShaderMaterial" id=1]
shader = ExtResource( 1 )
shader_param/Albedo = Color( 1, 0.784314, 0.588235, 1 )
shader_param/Texture = ExtResource( 3 )

[node name="MyBulletProjectile" instance=ExtResource( 2 )]
InitialSpeed = 1600.0
Damage = 50
IncendaryDuration = 3.0
IncendaryProbability = 0.25
DamageDegradation = 60.0
ExplosionDamage = 20
ParticuleCount = 1
ParticuleRadius = 3

[node name="MyBulletFlare" parent="." index="0"]
material = SubResource( 1 )
