[gd_scene load_steps=2 format=2]

[sub_resource type="CSharpScript" id=1]
script/source = "using Godot;
using GodotUtils;
using System;

public class MyServerMain : Node
{ 
    public override void _Ready()
    {
        var args = OS.GetCmdlineArgs();
        if (args.Length >= 3 && args[1] == \"-session\")
        {
            MyDebug.PrintLine(\"Loading session server...\");
            GetTree().ChangeScene(\"res://Game/Server/SessionServer/MySessionServer.tscn\");
        } else
        {
            MyDebug.PrintLine(\"Loading host server...\");
            GetTree().ChangeScene(\"res://Game/Server/HostServer/MyHostServer.tscn\");
        }
    }
}
"

[node name="MyServerMain" type="Node"]
script = SubResource( 1 )
