[gd_scene load_steps=6 format=2]

[ext_resource path="res://Content/Shaders/CloudShader.shader" type="Shader" id=1]
[ext_resource path="res://Game/Common/Decorations/MyCloud.cs" type="Script" id=2]

[sub_resource type="ShaderMaterial" id=1]
shader = ExtResource( 1 )
shader_param/Color = Color( 1, 1, 1, 1 )
shader_param/Fadeout = 0.779081
shader_param/Power = 1.41207
shader_param/MinAlpha = 1.22651
shader_param/Intensity = 2.33833
shader_param/Shadow = 0.8
shader_param/ShadowDepth = 700.0

[sub_resource type="OpenSimplexNoise" id=2]
period = 83.7616

[sub_resource type="NoiseTexture" id=3]
width = 1822
height = 813
noise = SubResource( 2 )

[node name="MyCloud" type="Sprite"]
material = SubResource( 1 )
texture = SubResource( 3 )
script = ExtResource( 2 )
