[gd_scene load_steps=8 format=2]

[ext_resource path="res://Game/Common/Vehicles/Components/MyComponent.tscn" type="PackedScene" id=1]
[ext_resource path="res://Content/Textures/Bomber_MiddleBody_Destroyed.png" type="Texture" id=2]
[ext_resource path="res://Content/Textures/Bomber_MiddleBody_Damaged.png" type="Texture" id=3]
[ext_resource path="res://Content/Textures/Bomber_MiddleBody_Base.png" type="Texture" id=4]
[ext_resource path="res://Content/Shaders/RecolorShader.shader" type="Shader" id=5]

[sub_resource type="ShaderMaterial" id=1]
shader = ExtResource( 5 )
shader_param/Tolerance = 0.1
shader_param/ColorAlpha = Color( 1, 1, 1, 1 )
shader_param/Texture = ExtResource( 4 )

[sub_resource type="RectangleShape2D" id=2]
extents = Vector2( 8, 7.5 )

[node name="MyMiddleBody" instance=ExtResource( 1 )]
MaxHeal = 750
CanBurn = true
CanSmoke = true
FireScale = 0.75
ComponentType = 4
BaseTexture = ExtResource( 4 )
DamagedTexture = ExtResource( 3 )
DestroyedTexture = ExtResource( 2 )

[node name="Sprite" parent="." index="2"]
material = SubResource( 1 )

[node name="CollisionShape" parent="." index="3"]
visible = false
position = Vector2( 0, -0.5 )
shape = SubResource( 2 )
