[gd_scene load_steps=5 format=2]

[ext_resource path="res://Content/Shaders/RecolorShader.shader" type="Shader" id=1]
[ext_resource path="res://Content/Textures/White_32.png" type="Texture" id=2]
[ext_resource path="res://Game/Common/Vehicles/Components/MyComponentDisplay.cs" type="Script" id=3]

[sub_resource type="ShaderMaterial" id=1]
shader = ExtResource( 1 )
shader_param/Tolerance = 1.0
shader_param/ColorAlpha = Color( 1, 1, 1, 1 )

[node name="MyComponentDisplay" type="CenterContainer"]
margin_right = 40.0
margin_bottom = 40.0
mouse_default_cursor_shape = 3
use_top_left = true
script = ExtResource( 3 )
__meta__ = {
"_edit_use_anchors_": false
}

[node name="Render" type="TextureRect" parent="."]
material = SubResource( 1 )
margin_left = -16.0
margin_top = -16.0
margin_right = 16.0
margin_bottom = 16.0
mouse_default_cursor_shape = 3
texture = ExtResource( 2 )
__meta__ = {
"_edit_use_anchors_": false
}
